Error log:
First new Error: 2
Wed Jun 23 13:56:07 2021: Power On (after Reset , mains interrupt)
Wed Jun 23 13:56:08 2021: Power On (after Reset , mains interrupt)
Thu Jun 24 02:57:57 2021: Power On (after Reset , mains interrupt)
Thu Jun 24 02:57:58 2021: Power On (after Reset , mains interrupt)
Thu Jun 24 03:11:23 2021: Power On (after Reset , mains interrupt)
Thu Jun 24 03:11:24 2021: Power On (after Reset , mains interrupt)
Thu Jun 24 03:13:22 2021: Power On (after Reset , mains interrupt)
Thu Jun 24 03:13:23 2021: Power On (after Reset , mains interrupt)
Mon Jun 28 17:35:06 2021: Power On (after Reset , mains interrupt)
Mon Jun 28 17:35:07 2021: Power On (after Reset , mains interrupt)
Mon Jun 28 18:51:56 2021: Power On (after Reset , mains interrupt)
